## Interface: 20501
## Notes: GatherMate2 data fetched from Wowhead
## Title: GatherMate2Data
## Author: kagaro, Xinhuan, Spinx, Marrtin
## Version: v2021-06-19
## LoadOnDemand: 1
## Dependencies: GatherMate2

MiningData.lua
HerbalismData.lua
FishData.lua
TreasureData.lua
GasData.lua
GatherMateData.lua
